<?xml version="1.0" encoding="utf-8"?>
<!-- Generator: Adobe Illustrator 18.1.1, SVG Export Plug-In . SVG Version: 6.00 Build 0)  -->
<svg version="1.1" id="Layer_1" xmlns="http://www.w3.org/2000/svg" xmlns:xlink="http://www.w3.org/1999/xlink" x="0px" y="0px"
	 viewBox="0 0 31 31" enable-background="new 0 0 31 31" xml:space="preserve">
<g>
	<g>
		<path fill="#919191" d="M25.5,31h-20c-3,0-5.5-2.5-5.5-5.5l0-20C0,2.5,2.5,0,5.5,0l20,0c3,0,5.5,2.5,5.5,5.5v20
			C31,28.5,28.5,31,25.5,31z M5.5,1C3,1,1,3,1,5.5v20C1,28,3,30,5.5,30h20c2.5,0,4.5-2,4.5-4.5v-20C30,3,28,1,25.5,1H5.5z"/>
	</g>
	<path fill="#919191" d="M10.5,26.1c-0.3,0-0.5-0.1-0.7-0.3c-0.4-0.4-0.4-1,0-1.4l9.2-8.9L9.8,6.6c-0.4-0.4-0.4-1,0-1.4
		c0.4-0.4,1-0.4,1.4,0l10,9.6c0.2,0.2,0.3,0.4,0.3,0.7s-0.1,0.5-0.3,0.7l-10,9.6C11,26,10.8,26.1,10.5,26.1z"/>
</g>
</svg>
