<?xml version="1.0" encoding="utf-8"?>
<!-- Generator: Adobe Illustrator 18.1.1, SVG Export Plug-In . SVG Version: 6.00 Build 0)  -->
<svg version="1.1" id="Layer_1" xmlns="http://www.w3.org/2000/svg" xmlns:xlink="http://www.w3.org/1999/xlink" x="0px" y="0px"
	 width="180px" height="40px" viewBox="235 705.2 180 40" enable-background="new 235 705.2 180 40" xml:space="preserve">
<g>
	<g>
		<path fill="#CECCCC" d="M413.7,741.3c0,2.2-1.6,3.9-3.8,3.9H238.8c-2.1,0-3.8-1.7-3.8-3.9v-31c0-2.2,1.6-3.9,3.8-3.9h171.1
			c2.1,0,3.8,1.7,3.8,3.9L413.7,741.3L413.7,741.3z"/>
	</g>
	<path fill="#919191" d="M410.6,745.2H239.4c-2.4,0-4.4-2.1-4.4-4.5v-31c0-2.5,2-4.5,4.4-4.5h171.1c2.4,0,4.4,2.1,4.4,4.5v31
		C415,743.1,413,745.2,410.6,745.2z M239.4,706.5c-1.8,0-3.2,1.4-3.2,3.2v31c0,1.8,1.4,3.2,3.2,3.2h171.1c1.8,0,3.2-1.4,3.2-3.2v-31
		c0-1.8-1.4-3.2-3.2-3.2H239.4z"/>
</g>
<g enable-background="new    ">
	<path fill="#535353" d="M293.4,730.6v-12.1c0-0.1,0.1-0.3,0.3-0.4c0.1-0.1,0.3-0.1,0.5-0.1h6.3c0.1,0,0.3,0.1,0.4,0.3
		c0.1,0.1,0.1,0.3,0.1,0.5c0,0.1,0,0.4-0.1,0.5c-0.1,0.1-0.3,0.3-0.4,0.3h-5.4v4.6h2.8c0.1,0,0.3,0,0.4,0.1c0.1,0.1,0.1,0.3,0.1,0.5
		c0,0.1,0,0.3-0.1,0.4s-0.3,0.1-0.4,0.1h-2.8v4.6h5.4c0.1,0,0.3,0.1,0.4,0.3c0.1,0.1,0.1,0.3,0.1,0.5c0,0.1,0,0.4-0.1,0.5
		s-0.3,0.3-0.4,0.3h-6.3c-0.1,0-0.4,0-0.5-0.1C293.6,731,293.4,730.9,293.4,730.6z"/>
	<path fill="#535353" d="M301.7,730.5c0-0.1,0-0.3,0.1-0.4l3-5.5l-3-5.5c-0.1-0.1-0.1-0.3-0.1-0.4c0-0.3,0.1-0.4,0.3-0.5
		c0.1-0.1,0.4-0.1,0.6-0.1s0.5,0.1,0.6,0.5l2.5,4.8l2.5-4.8c0.1-0.4,0.4-0.5,0.6-0.5s0.5,0,0.6,0.1c0.1,0.1,0.3,0.3,0.3,0.5
		c0,0.1,0,0.3-0.1,0.4l-2.9,5.5l3,5.5c0.1,0.1,0.1,0.3,0.1,0.4c0,0.1-0.1,0.4-0.3,0.5c-0.3,0.1-0.4,0.3-0.6,0.3s-0.4-0.1-0.5-0.5
		l-2.8-4.9l-2.7,4.9c-0.1,0.4-0.4,0.5-0.5,0.5c-0.3,0-0.4-0.1-0.6-0.3C301.8,730.9,301.7,730.7,301.7,730.5z"/>
	<path fill="#535353" d="M310.6,718.6c0-0.1,0-0.4,0.1-0.5c0.1-0.1,0.3-0.3,0.4-0.3h7.2c0.1,0,0.3,0.1,0.4,0.3
		c0.1,0.1,0.1,0.3,0.1,0.5c0,0.1,0,0.4-0.1,0.5c-0.1,0.1-0.3,0.3-0.4,0.3h-2.9v11.2c0,0.1-0.1,0.3-0.3,0.4c-0.1,0.1-0.4,0.1-0.5,0.1
		c-0.1,0-0.4,0-0.5-0.1c-0.1-0.1-0.3-0.3-0.3-0.4v-11.2h-2.8c-0.1,0-0.3-0.1-0.4-0.3C310.6,719,310.6,718.9,310.6,718.6z"/>
	<path fill="#535353" d="M320.3,730.6v-12.1c0-0.1,0-0.3,0.1-0.4c0.1-0.1,0.3-0.1,0.4-0.1h3.3c1.1,0,2.1,0.3,2.9,0.9
		c0.8,0.6,1.1,1.6,1.1,2.7c0,1.9-0.9,3.1-2.7,3.5l2.7,5c0,0.1,0.1,0.1,0.1,0.3c0,0.1-0.1,0.4-0.3,0.5c-0.1,0.1-0.4,0.3-0.6,0.3
		c-0.3,0-0.5-0.3-0.6-0.7l-2.6-5.3h-2v5.3c0,0.1-0.1,0.3-0.3,0.4c-0.1,0.1-0.4,0.1-0.5,0.1s-0.4,0-0.5-0.1
		C320.3,731,320.3,730.9,320.3,730.6z M321.8,724h2.3c1.6,0,2.4-0.8,2.4-2.3s-0.8-2.3-2.4-2.3h-2.3V724z"/>
	<path fill="#535353" d="M329.8,727.4v-8.9c0-0.1,0.1-0.3,0.3-0.4c0.1-0.1,0.4-0.1,0.5-0.1s0.4,0,0.5,0.1s0.3,0.3,0.3,0.4v8.9
		c0,1.7,0.8,2.6,2.4,2.6c0.8,0,1.4-0.3,1.8-0.7s0.6-1,0.6-1.9v-8.9c0-0.4,0.3-0.5,0.8-0.5c0.3,0,0.4,0,0.5,0.1
		c0.1,0.1,0.3,0.3,0.3,0.4v8.9c0,1.4-0.4,2.3-1,3c-0.8,0.7-1.6,0.9-2.8,0.9s-2.1-0.3-2.8-0.9C330.2,729.7,329.8,728.7,329.8,727.4z"
		/>
	<path fill="#535353" d="M340.1,730.6v-12.1c0-0.1,0-0.3,0.1-0.4c0.1-0.1,0.3-0.1,0.5-0.1h3.2c1.1,0,2,0.3,2.8,0.9
		c0.8,0.6,1,1.7,1,3v5.3c0,1.4-0.4,2.3-1,3c-0.8,0.7-1.6,0.9-2.8,0.9h-3.2c-0.3,0-0.4,0-0.5-0.1C340.2,731,340.1,730.9,340.1,730.6z
		 M341.6,729.8h2.3c0.8,0,1.3-0.3,1.8-0.7c0.4-0.4,0.6-1,0.6-1.9v-5.3c0-0.9-0.3-1.6-0.6-1.9s-1-0.7-1.8-0.7h-2.3V729.8z"/>
	<path fill="#535353" d="M350.1,730.6v-12.1c0-0.1,0.1-0.3,0.3-0.4c0.1-0.1,0.3-0.1,0.5-0.1h6.3c0.1,0,0.3,0.1,0.4,0.3
		c0.1,0.1,0.1,0.3,0.1,0.5c0,0.1,0,0.4-0.1,0.5c-0.1,0.1-0.3,0.3-0.4,0.3h-5.6v4.6h2.8c0.1,0,0.3,0,0.4,0.1s0.1,0.3,0.1,0.5
		c0,0.1,0,0.3-0.1,0.4s-0.3,0.1-0.4,0.1h-2.8v4.6h5.5c0.1,0,0.3,0.1,0.4,0.3c0.1,0.1,0.1,0.3,0.1,0.5c0,0.1,0,0.4-0.1,0.5
		s-0.3,0.3-0.4,0.3h-6.3c-0.1,0-0.4,0-0.5-0.1C350.2,731,350.1,730.9,350.1,730.6z"/>
</g>
</svg>
